NoC RTL/waves/arbiter_test.vcd
$date
	Wed Dec 19 23:11:22 2012
$end
$version
	GTKWave Analyzer v3.3.34 (w)1999-2012 BSI
$end
$timescale
	1ps
$end
$scope module top $end
$scope module dut $end
$scope module b $end
$var wire 1 " clk $end
$upscope $end
$scope module arbiter_unit $end
$scope module arb5 $end
$var wire 3 6 req_port_addr_o[2:0] $end
$upscope $end
$scope module arb4 $end
$var wire 3 5 req_port_addr_o[2:0] $end
$upscope $end
$scope module arb3 $end
$var wire 3 3 req_port_addr_o[2:0] $end
$upscope $end
$scope module arb1 $end
$scope module register $end
$var wire 1 2 en_i $end
$upscope $end
$scope module arb $end
$var wire 32 + output_mode[31:0] $end
$var wire 3 % grant_index[2:0] $end
$var wire 5 ) grant[4:0] $end
$var wire 1 ' granted $end
$var wire 5 ( mask[4:0] $end
$var wire 5 & request[4:0] $end
$var wire 1 $ enable $end
$var wire 1 * rst_n $end
$upscope $end
$var wire 3 / req_port_addr_o_temp2[2:0] $end
$var wire 3 0 req_port_addr_o_temp[2:0] $end
$var wire 3 - req_port_addr[2:0] $end
$var wire 3 1 state[2:0] $end
$var wire 3 . req_port_addr_o[2:0] $end
$var wire 1 , req_port_addr1_i $end
$upscope $end
$upscope $end
$scope module b $end
$var wire 1 # rst $end
$upscope $end
$scope module arbiter_unit $end
$scope module arb2 $end
$var wire 3 4 req_port_addr_o[2:0] $end
$upscope $end
$upscope $end
$upscope $end
$upscope $end
$enddefinitions $end
$dumpvars
#0
bx 0
bX 4
X'
bX 3
0"
bX 6
bX 1
bx )
bx -
X#
X2
bX .
X,
bX (
bX /
b1 +
bx &
bX 5
bx %
X$
X*
#5000
1"
#6000
0*
0,
0'
b0 0
1#
b0 )
b0 -
02
b0 %
b0 &
#10000
0"
#15000
1"
b0 1
b111 0
#20000
0"
#25000
1"
#30000
0"
#35000
1"
#40000
0"
#45000
1"
#50000
0"
#55000
1"
#60000
0"
#65000
1"
#70000
0"
#75000
1"
#80000
0"
#85000
1"
#90000
0"
#95000
1"
#96000
1*
0#
#100000
0"
#105000
1"
bX -
bX )
X'
bX %
b0 (
X2
0$
#110000
0"
#115000
1"
b0 )
b0 -
02
0'
b0 %
#120000
0"
#125000
1"
b101 5
#130000
0"
#135000
1"
#140000
0"
#145000
1"
#150000
0"
#155000
1"
#160000
0"
#165000
1"
#170000
0"
#175000
1"
#180000
0"
#185000
1"
#190000
0"
#195000
1"
#200000
0"
#205000
1"
#210000
0"
#215000
1"
#220000
0"
#225000
1"
#230000
0"
#235000
1"
#240000
0"
#245000
1"
#250000
0"
#255000
1"
#260000
0"
#265000
1"
#270000
0"
#275000
1"
#280000
0"
#285000
1"
#286000
1#
0*
#290000
0"
#295000
1"
#300000
0"
#305000
1"
#306000
1*
0#
#310000
0"
#315000
1"
#320000
0"
#325000
1"
#330000
0"
#335000
1"
#340000
0"
#345000
1"
#350000
0"
#355000
1"
#360000
0"
#365000
1"
#366000
1#
0*
#370000
0"
#375000
1"
#376000
1*
0#
#380000
0"
#385000
1"
#386000
1#
0*
#390000
0"
#395000
1"
#396000
1*
0#
#400000
0"
#405000
1"
#410000
0"
#415000
1"
#420000
0"
#425000
1"
b101 4
